Project 1: Exploratory Data Analysis
…
full_project_data %>% summarize_all(sd)

## # A tibble: 1 x 7
##    year country_3_code  name dollar_price meat_cons_g_ppe… percent_overwei…
##   <dbl>          <dbl> <dbl>        <dbl>            <dbl>            <dbl>
## 1  3.89             NA    NA         1.38             82.1             15.7
## # … with 1 more variable: percent_obese <dbl>

full_project_data %>% select(name, dollar_price, meat_cons_g_pperson_pday, 
    percent_overweight_obese, percent_obese) %>% group_by(name) %>% 
    summarize_all(mean) %>% arrange(desc(meat_cons_g_pperson_pday))

## # A tibble: 35 x 5
##    name      dollar_price meat_cons_g_pperson… percent_overweight… percent_obese
##    <chr>            <dbl>                <dbl>               <dbl>         <dbl>
##  1 United S…         3.32                 332.                64.6          30.0
##  2 Australia         2.96                 313.                62.1          23.7
##  3 New Zeal…         3.02                 291.                62.8          25.2
##  4 Canada            3.35                 264.                62.0          24.1
##  5 Israel            3.73                 263.                62.1          23.6
##  6 Argentina         2.74                 262.                57.8          23.7
##  7 Brazil            3.35                 230.                49.0          17.5
##  8 Hungary           2.89                 225.                59.7          22.1
##  9 Denmark           4.53                 214.                55.4          16.2
## 10 Sweden            4.72                 212.                55.8          16.9
## # … with 25 more rows
…
full_project_data %>% mutate(meat_cons_pctile = ntile(meat_cons_g_pperson_pday, 
    100)) %>% mutate(overweight_pctile = ntile(percent_overweight_obese, 
    100)) %>% mutate(obesity_pctile = ntile(percent_obese, 100)) %>% 
    select(year, name, meat_cons_pctile, overweight_pctile, obesity_pctile)

## # A tibble: 431 x 5
##     year name        meat_cons_pctile overweight_pctile obesity_pctile
##    <dbl> <chr>                  <int>             <int>          <int>
##  1  2000 Argentina                 87                40             52
##  2  2000 Australia                 94                66             49
##  3  2000 Brazil                    73                26             26
##  4  2000 Canada                    90                64             51
##  5  2000 Switzerland               59                31             25
##  6  2000 Chile                     52                40             52
##  7  2000 China                     25                 6              1
##  8  2000 Denmark                   57                34             25
##  9  2000 Hungary                   84                52             46
## 10  2000 Indonesia                  3                 1              2
## # … with 421 more rows

full_project_data %>% group_by(name) %>% mutate(cum_mean_meat_cons = cummean(meat_cons_g_pperson_pday)) %>% 
    select(year, name, cum_mean_meat_cons)

## # A tibble: 431 x 3
## # Groups:   name [35]
##     year name        cum_mean_meat_cons
##    <dbl> <chr>                    <dbl>
##  1  2000 Argentina                271. 
##  2  2000 Australia                304. 
##  3  2000 Brazil                   216. 
##  4  2000 Canada                   277. 
##  5  2000 Switzerland              196. 
##  6  2000 Chile                    178. 
##  7  2000 China                    123. 
##  8  2000 Denmark                  191. 
##  9  2000 Hungary                  258. 
## 10  2000 Indonesia                 22.9
## # … with 421 more rows
…
